%YAML 1.1
%TAG !u! tag:unity3d.com,2011:
--- !u!114 &11400000
MonoBehaviour:
  m_ObjectHideFlags: 0
  m_CorrespondingSourceObject: {fileID: 0}
  m_PrefabInstance: {fileID: 0}
  m_PrefabAsset: {fileID: 0}
  m_GameObject: {fileID: 0}
  m_Enabled: 1
  m_EditorHideFlags: 0
  m_Script: {fileID: 11500000, guid: 2661e0eefff7e0b4884230c1662b5317, type: 3}
  m_Name: Shape5
  m_EditorClassIdentifier: 
  serializationData:
    SerializedFormat: 2
    SerializedBytes: 
    ReferencedUnityObjects: []
    SerializedBytesString: 
    Prefab: {fileID: 0}
    PrefabModificationsReferencedUnityObjects: []
    PrefabModifications: []
    SerializationNodes: []
  _offsets:
  - {x: 0, y: 0, z: 0}
  - {x: 0, y: -1, z: 0}
  - {x: 0, y: -1, z: 1}
  - {x: 1, y: -1, z: 0}
  _pickWeight: 10
  _normalMaterial: {fileID: 2100000, guid: 1f29d13fbf1a50f47a8ca0254664d411, type: 2}
  _previewMaterial: {fileID: 2100000, guid: 993ace8463e8d3c499bf7f9dea307121, type: 2}
  _shapeBaseColor: {r: 1, g: 0, b: 1, a: 1}
